# Exported from Wings 3D 1.5.4
mtllib arrow.mtl
o Cube1
#37 vertices, 65 faces
v -0.40650102 9.9221258e-2 -0.40675454
v -0.40650102 9.9221258e-2 0.40675454
v -0.14374649 7.84817330 -0.14400000
v -0.14374649 7.84817330 0.14400000
v 0.40700805 9.9221258e-2 -0.40675454
v 0.40700805 9.9221258e-2 0.40675454
v 0.14425351 7.84817330 -0.14400000
v 0.14425351 7.84817330 0.14400000
v -0.28904559 1.22388357 -0.28929910
v -0.28904559 1.22388357 0.28929910
v 0.28955262 1.22388357 -0.28929910
v 0.28955262 1.22388357 0.28929910
v -0.14374649 9.9221258e-2 -4.8000000e-2
v -4.7746486e-2 9.9221258e-2 -0.14400000
v -0.14374649 9.9221258e-2 4.8000000e-2
v -4.7746486e-2 9.9221258e-2 0.14400000
v 4.8253514e-2 9.9221258e-2 -0.14400000
v 0.14425351 9.9221258e-2 -4.8000000e-2
v 0.14425351 9.9221258e-2 4.8000000e-2
v 4.8253514e-2 9.9221258e-2 0.14400000
v -0.14374649 1.22388357 -4.8000000e-2
v -0.14374649 2.99356557 -0.14400000
v -4.7746486e-2 1.22388357 -0.14400000
v -0.14374649 1.22388357 4.8000000e-2
v -4.7746486e-2 1.22388357 0.14400000
v -0.14374649 2.99356557 0.14400000
v 4.8253514e-2 1.22388357 -0.14400000
v 0.14425351 2.99356557 -0.14400000
v 0.14425351 1.22388357 -4.8000000e-2
v 4.8253514e-2 1.22388357 0.14400000
v 0.14425351 1.22388357 4.8000000e-2
v 0.14425351 2.99356557 0.14400000
v 0.40025351 7.69881771 -7.3798609e-18
v -8.3211485e-3 7.52200320 0.51961524
v -8.3211485e-3 7.52200320 -0.51961524
v 2.5351380e-4 9.29881771 -7.3798609e-18
v -0.39510384 7.69881771 1.0364244e-16
vt 0.0000000e+0 1.4349601e-3
vt 2.2629766e-2 0.14609921
vt 4.9075495e-2 0.37422454
vt 5.5898487e-2 1.00000000
vt 5.7270695e-2 8.4689375e-4
vt 5.8953709e-2 0.14586474
vt 6.9633381e-2 7.0231439e-4
vt 7.1343816e-2 0.14572581
vt 8.6199203e-2 0.37381975
vt 9.3022667e-2 0.99959523
vt 0.10766519 0.14517202
vt 0.12690875 0.0000000e+0
vt 0.12690875 1.3613866e-3
vt 0.14934605 0.14607423
vt 0.17584443 0.37419351
vt 0.18280953 0.99996741
vt 0.18418569 8.0164606e-4
vt 0.18567081 0.14582764
vt 0.19654856 6.7385747e-4
vt 0.19806097 0.14569357
vt 0.21296805 0.37378030
vt 0.21993361 0.99955420
vt 0.23438126 0.14512768
vt 0.25381830 0.0000000e+0
vt 0.27481101 0.14491086
vt 0.29842314 0.99913322
vt 0.29867579 0.37332061
vt 0.31109199 5.9490904e-5
vt 0.31113528 0.14508710
vt 0.32345552 5.4697033e-5
vt 0.32352616 0.14508826
vt 0.33554953 0.99914821
vt 0.33580170 0.37333559
vt 0.35985148 0.14494517
vt 0.38073516 0.0000000e+0
vt 0.38073516 0.0000000e+0
vt 0.40161890 0.14494519
vt 0.42566881 0.37333559
vt 0.42592108 0.99914820
vt 0.43794421 0.14508826
vt 0.43801482 5.4678671e-5
vt 0.45033510 0.14508710
vt 0.45037835 5.9509028e-5
vt 0.46279472 0.37332061
vt 0.46304746 0.99913323
vt 0.48665937 0.14491084
vt 0.50765202 0.0000000e+0
vt 0.50765202 0.29126198
vt 0.50765202 0.46828013
vt 0.50765202 0.36340873
vt 0.50765202 0.46828013
vt 0.50765202 0.50540690
vt 0.54152434 0.42203223
vt 0.54152434 0.40965664
vt 0.54477879 0.46828013
vt 0.54477879 0.50540690
vt 0.55389993 0.39728105
vt 0.55389993 0.43440782
vt 0.55840168 0.36340873
vt 0.56220498 0.22194636
vt 0.56627552 0.39728105
vt 0.56627552 0.43440782
vt 0.57865111 0.40965664
vt 0.57865111 0.42203223
vt 0.59536446 0.22194636
vt 0.59536446 9.3385890e-3
vt 0.61252343 0.46828013
vt 0.61252343 0.36340873
vt 0.61697636 0.29420123
vt 0.68307690 0.0000000e+0
vt 0.68307690 5.5511151e-17
vt 0.77350058 0.22085565
vt 0.77350058 6.6505356e-3
vt 0.86392425 5.5511151e-17
vn -0.45710410 -0.76296243 -0.45710410
vn -0.21528701 -0.95252454 0.21528701
vn -0.40824829 0.40824829 -0.81649658
vn -0.81649658 0.40824829 0.40824829
vn 0.21528701 -0.95252454 -0.21528701
vn 0.45710410 -0.76296243 0.45710410
vn 0.57735027 0.57735027 -0.57735027
vn 0.66666667 0.33333333 0.66666667
vn -0.70103469 0.13076969 -0.70103469
vn -0.70487677 7.9356692e-2 0.70487677
vn 0.70487677 7.9356692e-2 -0.70487677
vn 0.70103469 0.13076969 0.70103469
vn -0.65479885 -0.72483172 0.21414351
vn 0.13341969 -0.90319640 -0.40796501
vn -0.75552173 -0.61408458 -0.22822587
vn 0.20048838 -0.72063013 0.66369919
vn -0.20048838 -0.72063013 -0.66369919
vn 0.75552173 -0.61408458 0.22822587
vn 0.65479885 -0.72483172 -0.21414351
vn -0.13341969 -0.90319640 0.40796501
vn -0.95936591 1.1045447e-2 0.28194866
vn -0.79243278 1.0213256e-2 -0.60987373
vn 0.28194866 1.1045447e-2 -0.95936591
vn -0.97686074 5.7978122e-3 -0.21379775
vn 0.21379775 5.7978122e-3 0.97686074
vn -0.57377159 1.3713725e-2 0.81890054
vn -0.21379775 5.7978122e-3 -0.97686074
vn 0.70705721 1.1840739e-2 -0.70705721
vn 0.97686074 5.7978122e-3 0.21379775
vn -0.28194866 1.1045447e-2 0.95936591
vn 0.95936591 1.1045447e-2 -0.28194866
vn 0.70705721 1.1840739e-2 0.70705721
vn 0.69735241 -0.71672842 -9.9273936e-16
vn -1.4057198e-2 -0.51738485 0.85563737
vn -1.4057198e-2 -0.51738485 -0.85563737
vn -4.1908976e-2 0.99912143 4.4709695e-16
vn -0.70558112 -0.70862916 -5.1775101e-16
g Cube1_Cube1_auv
usemtl Cube1_auv
s 1
f 1/67/1 14/62/14 13/64/13
f 1/35/1 21/40/21 9/37/9
f 1/12/1 23/8/23 14/7/14
f 2/68/2 15/63/15 16/61/16
f 2/24/2 16/28/16 10/25/10
f 3/39/3 22/38/22 4/45/4
f 3/10/3 28/3/28 22/9/22
f 4/51/4 8/55/8 7/56/7 3/52/3
f 4/45/4 22/38/22 26/44/26
f 4/26/4 26/27/26 8/32/8
f 5/24/5 11/23/11 18/19/18
f 5/1/5 17/5/17 11/2/11
f 6/50/6 20/57/20 19/54/19
f 6/36/6 30/31/30 20/30/20
f 6/13/6 31/18/31 12/14/12
f 7/4/7 28/3/28 3/10/3
f 8/32/8 26/27/26 32/33/32
f 8/16/8 28/21/28 7/22/7
f 9/37/9 21/40/21 22/38/22
f 9/11/9 23/8/23 1/12/1
f 10/46/10 15/43/15 2/47/2
f 10/25/10 16/28/16 25/29/25
f 10/25/10 25/29/25 26/27/26
f 11/2/11 17/5/17 27/6/27
f 11/2/11 27/6/27 28/3/28
f 12/34/12 30/31/30 6/36/6
f 12/14/12 31/18/31 32/15/32
f 13/64/13 14/62/14 15/63/15
f 13/41/13 21/40/21 1/35/1
f 14/7/14 23/8/23 17/5/17
f 15/63/15 14/62/14 16/61/16
f 15/43/15 21/40/21 13/41/13
f 16/61/16 17/58/17 20/57/20
f 17/58/17 16/61/16 14/62/14
f 18/53/18 17/58/17 5/49/5
f 18/53/18 20/57/20 17/58/17
f 18/19/18 31/18/31 19/17/19
f 19/54/19 20/57/20 18/53/18
f 19/17/19 31/18/31 6/13/6
f 20/30/20 30/31/30 16/28/16
f 21/40/21 15/43/15 24/42/24
f 22/9/22 23/8/23 9/11/9
f 23/8/23 22/9/22 27/6/27
f 24/42/24 15/43/15 10/46/10
f 24/42/24 22/38/22 21/40/21
f 25/29/25 16/28/16 30/31/30
f 25/29/25 32/33/32 26/27/26
f 26/44/26 22/38/22 24/42/24
f 26/44/26 24/42/24 10/46/10
f 27/6/27 17/5/17 23/8/23
f 27/6/27 22/9/22 28/3/28
f 28/21/28 29/20/29 11/23/11
f 28/21/28 32/15/32 29/20/29
f 29/20/29 18/19/18 11/23/11
f 29/20/29 32/15/32 31/18/31
f 30/31/30 32/33/32 25/29/25
f 31/18/31 18/19/18 29/20/29
f 32/15/32 28/21/28 8/16/8
f 32/33/32 30/31/30 12/34/12
f 33/66/33 36/65/36 34/47/34
f 33/48/33 37/69/37 35/59/35
f 34/74/34 36/72/36 37/73/37
f 34/60/34 37/69/37 33/48/33
f 35/71/35 36/65/36 33/66/33
f 35/70/35 37/73/37 36/72/36
