# Exported from Wings 3D 1.5.4
mtllib bronze_pickaxe.mtl
o Cube1
#40 vertices, 72 faces
v -0.25000000 -1.00000000 -0.25000000
v -0.25000000 -1.00000000 0.25000000
v -0.25000000 6.01451785 -0.25000000
v -0.25000000 6.01451785 0.25000000
v 0.25000000 -1.00000000 -0.25000000
v 0.25000000 -1.00000000 0.25000000
v 0.25000000 6.01451785 -0.25000000
v 0.25000000 6.01451785 0.25000000
v -0.29089694 -1.24538162 0.0000000e+0
v 0.0000000e+0 -1.24538162 -0.29089694
v 0.0000000e+0 -1.24538162 0.29089694
v -0.29089694 6.01413947 0.0000000e+0
v 0.0000000e+0 6.01413947 -0.29089694
v 0.0000000e+0 6.01413947 0.29089694
v 0.29089694 -1.24538162 0.0000000e+0
v 0.29089694 6.01413947 0.0000000e+0
v -0.40722854 5.10822259 -1.00000000
v -0.40722854 5.10822259 1.00000000
v -0.40722854 5.72069830 -1.00000000
v -0.40722854 5.72069830 1.00000000
v 0.40722854 5.10822259 -1.00000000
v 0.40722854 5.10822259 1.00000000
v 0.40722854 5.72069830 -1.00000000
v 0.40722854 5.72069830 1.00000000
v -0.40722854 4.77562992 -2.16543610
v -0.40722854 5.38810562 -2.16543610
v 0.40722854 5.38810562 -2.16543610
v 0.40722854 4.77562992 -2.16543610
v -0.40722854 5.38810562 2.16543610
v -0.40722854 4.77562992 2.16543610
v 0.40722854 4.77562992 2.16543610
v 0.40722854 5.38810562 2.16543610
v -1.3845770e-2 4.37846459 -3.36195051
v -1.3845770e-2 4.39928876 -3.36195051
v 1.3845770e-2 4.39928876 -3.36195051
v 1.3845770e-2 4.37846459 -3.36195051
v -1.3845770e-2 4.39928876 3.36195051
v -1.3845770e-2 4.37846459 3.36195051
v 1.3845770e-2 4.37846459 3.36195051
v 1.3845770e-2 4.39928876 3.36195051
vt 0.0000000e+0 5.5511151e-17
vt 3.7044845e-3 2.2474689e-2
vt 3.7044845e-3 0.99999352
vt 2.6349729e-2 2.8988090e-4
vt 2.6349729e-2 1.00000000
vt 4.8994974e-2 2.2474689e-2
vt 4.8994974e-2 0.99999352
vt 5.2699459e-2 0.0000000e+0
vt 5.2699459e-2 0.0000000e+0
vt 5.6403943e-2 0.99999352
vt 5.6403943e-2 2.2474689e-2
vt 7.9049188e-2 1.00000000
vt 7.9049188e-2 2.8988090e-4
vt 0.10169443 0.99999352
vt 0.10169443 2.2474689e-2
vt 0.10539892 0.0000000e+0
vt 0.10539892 2.2226907e-2
vt 0.10539892 0.99980490
vt 0.12804416 0.0000000e+0
vt 0.12804416 0.99977062
vt 0.15068941 2.2226907e-2
vt 0.15068941 2.2226907e-2
vt 0.15068941 0.99980490
vt 0.17333465 0.0000000e+0
vt 0.17333465 0.99977062
vt 0.19597990 0.0000000e+0
vt 0.19597990 1.8862741e-3
vt 0.19597990 0.12158084
vt 0.19597990 0.12346712
vt 0.19597990 0.74383778
vt 0.19597990 0.87856896
vt 0.19597990 0.93126842
vt 0.19597990 0.95761815
vt 0.19597990 0.95950442
vt 0.19597990 2.2226907e-2
vt 0.19597990 0.63827144
vt 0.19597990 0.99980490
vt 0.19597990 0.35154313
vt 0.19597990 0.45710948
vt 0.19848822 0.95761815
vt 0.19848822 0.95950442
vt 0.19848822 0.95761815
vt 0.19848822 0.95950442
vt 0.19968438 0.85592371
vt 0.19968438 0.90121420
vt 0.20099655 0.95761815
vt 0.20099655 0.95950442
vt 0.22232963 0.85221923
vt 0.22232963 0.90491869
vt 0.22232963 0.95761815
vt 0.23161289 0.85221923
vt 0.23161289 0.24316169
vt 0.23412122 0.85221923
vt 0.23412122 0.24316169
vt 0.24497487 0.85592371
vt 0.24497487 0.90121420
vt 0.24867936 0.87856896
vt 0.24867936 0.93126842
vt 0.26975422 0.63827144
vt 0.26975422 0.74383778
vt 0.26975422 0.35154313
vt 0.26975422 0.45710948
vt 0.26975422 0.63827144
vt 0.26975422 0.74383778
vt 0.30436134 3.5975625e-2
vt 0.30436134 9.1454274e-2
vt 0.30436134 0.15755647
vt 0.30436134 0.21303512
vt 0.30538721 0.24316169
vt 0.30538721 0.85221923
vt 0.30789554 0.24316169
vt 0.30789554 0.85221923
vt 0.34352854 0.35154313
vt 0.34352854 0.45710948
vt 0.34352854 0.63827144
vt 0.34352854 0.74383778
vt 0.40992769 6.6102195e-2
vt 0.40992769 0.12158084
vt 0.40992769 0.18768304
vt 0.40992769 0.24316169
vt 0.59108965 6.6102195e-2
vt 0.59108965 0.12158084
vt 0.59108965 0.18768304
vt 0.59108965 0.24316169
vt 0.69665599 3.5975625e-2
vt 0.69665599 9.1454274e-2
vt 0.69665599 0.15755647
vt 0.69665599 0.21303512
vt 0.80503744 0.0000000e+0
vt 0.80503744 1.8862741e-3
vt 0.80503744 0.12158084
vt 0.80503744 0.12346712
vn -0.70158205 -0.12476080 -0.70158205
vn -0.70158205 -0.12476080 0.70158205
vn -0.60184825 0.52493559 -0.60184825
vn -0.60184825 0.52493559 0.60184825
vn 0.70158205 -0.12476080 -0.70158205
vn 0.70158205 -0.12476080 0.70158205
vn 0.60184825 0.52493559 -0.60184825
vn 0.60184825 0.52493559 0.60184825
vn -0.84301869 -0.53788428 -5.8770371e-17
vn -6.3115049e-18 -0.68951440 -0.72427197
vn -6.3115049e-18 -0.68951440 0.72427197
vn -0.79590722 0.60541862 -5.5452471e-16
vn 0.0000000e+0 0.71208118 -0.70209714
vn 0.0000000e+0 0.71208118 0.70209714
vn 0.84301869 -0.53788428 -5.8770371e-17
vn 0.79590722 0.60541862 -5.5452471e-16
vn -0.71052475 -0.69688576 9.7492635e-2
vn -0.71052475 -0.69688576 -9.7492635e-2
vn -0.71052475 0.69688576 -9.7492635e-2
vn -0.71052475 0.69688576 9.7492635e-2
vn 0.71052475 -0.69688576 9.7492635e-2
vn 0.71052475 -0.69688576 -9.7492635e-2
vn 0.71052475 0.69688576 -9.7492635e-2
vn 0.71052475 0.69688576 9.7492635e-2
vn -0.80420848 -0.59229651 4.9331222e-2
vn -0.67678835 0.60128965 -0.42474496
vn 0.58686848 0.68930640 -0.42478474
vn 0.71034745 -0.70050543 6.8546570e-2
vn -0.69139151 0.63141114 0.35113781
vn -0.83500012 -0.55015643 1.0134261e-2
vn 0.71061328 -0.69629684 -0.10099247
vn 0.53009853 0.68051513 0.50586036
vn -0.35075036 -0.70084051 -0.62112540
vn -0.50086969 0.40642059 -0.76416743
vn 0.49315925 0.20008205 -0.84661746
vn 0.56794158 -0.56740706 -0.59623116
vn -0.41277345 0.33493668 0.84701564
vn -0.42608129 -0.85136057 0.30600641
vn 0.39471463 -0.39434314 0.82987580
vn 0.62237518 0.25250688 0.74087071
g Cube1_Cube1_auv
usemtl Cube1_auv
s 1
f 1/11/1 10/9/10 9/13/9
f 1/11/1 12/12/12 3/10/3
f 1/21/1 13/20/13 10/19/10
f 2/15/2 9/13/9 11/16/11
f 2/15/2 12/12/12 9/13/9
f 2/22/2 14/25/14 4/23/4
f 3/23/3 13/20/13 1/21/1
f 4/14/4 12/12/12 2/15/2
f 5/17/5 13/20/13 7/18/7
f 5/6/5 16/5/16 15/4/15
f 6/35/6 14/25/14 11/24/11
f 6/2/6 16/5/16 8/3/8
f 7/56/7 13/49/13 16/57/16
f 7/7/7 16/5/16 5/6/5
f 8/37/8 14/25/14 6/35/6
f 8/55/8 16/57/16 14/48/14
f 9/58/9 10/50/10 11/49/11
f 9/13/9 12/12/12 1/11/1
f 10/19/10 13/20/13 5/17/5
f 11/49/11 10/50/10 15/32/15
f 11/24/11 14/25/14 2/22/2
f 11/1/11 15/4/15 6/2/6
f 12/31/12 13/49/13 3/45/3
f 12/31/12 14/48/14 13/49/13
f 13/49/13 14/48/14 16/57/16
f 14/48/14 12/31/12 4/44/4
f 15/4/15 10/8/10 5/6/5
f 15/4/15 16/5/16 6/2/6
f 17/59/17 21/36/21 18/62/18
f 17/59/17 25/60/25 21/36/21
f 18/83/18 19/80/19 17/79/17
f 18/62/18 21/36/21 22/39/22
f 18/83/18 29/88/29 20/84/20
f 19/63/19 24/74/24 23/75/23
f 19/80/19 25/67/25 17/79/17
f 20/84/20 19/80/19 18/83/18
f 20/62/20 24/74/24 19/63/19
f 20/62/20 29/61/29 24/74/24
f 21/81/21 24/78/24 22/77/22
f 21/81/21 27/86/27 23/82/23
f 22/39/22 31/38/31 18/62/18
f 23/82/23 24/78/24 21/81/21
f 23/75/23 27/76/27 19/63/19
f 24/78/24 31/65/31 22/77/22
f 25/67/25 19/80/19 26/68/26
f 25/60/25 33/53/33 28/30/28
f 26/64/26 19/63/19 27/76/27
f 26/68/26 34/29/34 25/67/25
f 27/86/27 21/81/21 28/85/28
f 27/76/27 34/70/34 26/64/26
f 28/30/28 21/36/21 25/60/25
f 28/85/28 35/90/35 27/86/27
f 29/88/29 18/83/18 30/87/30
f 29/61/29 37/69/37 32/73/32
f 30/61/30 18/62/18 31/38/31
f 30/87/30 37/92/37 29/88/29
f 31/65/31 24/78/24 32/66/32
f 31/38/31 38/54/38 30/61/30
f 32/73/32 24/74/24 29/61/29
f 32/66/32 40/27/40 31/65/31
f 33/28/33 25/67/25 34/29/34
f 34/70/34 27/76/27 35/72/35
f 34/41/34 35/34/35 33/40/33
f 35/90/35 28/85/28 36/89/36
f 36/51/36 28/30/28 33/53/33
f 36/33/36 33/40/33 35/34/35
f 37/92/37 30/87/30 38/91/38
f 38/54/38 31/38/31 39/52/39
f 38/42/38 39/46/39 37/43/37
f 39/26/39 31/65/31 40/27/40
f 40/71/40 32/73/32 37/69/37
f 40/47/40 37/43/37 39/46/39
