# Exported from Wings 3D 1.5.4
mtllib Mushrooms.mtl
o Cube1
#68 vertices, 120 faces
v -0.48600000 0.0000000e+0 -0.48600000
v -0.20993633 1.3310782e-2 0.25326188
v -0.57299888 4.07525427 1.42748460
v 0.48600000 0.0000000e+0 -0.48600000
v 0.48600000 0.0000000e+0 0.48600000
v -1.6405285e-2 4.07652743 1.48669152
v -0.34253794 4.04098788 1.91960587
v -0.48600000 2.03826372 0.51042484
v -4.9937715e-2 2.64587699 0.92744629
v -0.48600000 0.71854256 -0.12193487
v 0.20193977 0.71854256 -0.12193487
v -0.70656569 1.59894647 -1.73035352
v -0.86954898 1.45116664 -2.36373834
v -1.50980531 1.49213269 -2.10180811
v -1.39475350 2.77538082 -2.17342092
v -0.84142424 2.77538082 -2.45341268
v -1.07219055 2.72175157 -2.90946094
v 1.59132549 0.99852950 -8.7142786e-2
v 1.91784915 0.70068883 0.26059596
v 1.91784915 0.70068883 -0.29538804
v 2.29834607 1.49285296 -8.7142786e-2
v 2.62486973 1.47579773 0.26059596
v 2.62486973 1.47579773 -0.29538804
v 3.71120701 1.68366099 0.14499930
v 3.17698277 1.68366099 1.02384125
v 2.15679311 1.68366099 1.15411691
v 1.41886164 1.68366099 0.43772607
v 1.51886582 1.68366099 -0.58587437
v 2.38150045 1.68366099 -1.14589240
v 3.35718407 1.68366099 -0.82062301
v 3.90801138 1.40854064 0.16422679
v 3.28465564 1.40854064 1.18969725
v 2.09425461 1.40854064 1.34170848
v 1.23320453 1.40854064 0.50579292
v 1.34989369 1.40854064 -0.68858796
v 2.35645276 1.40854064 -1.34204100
v 3.49492224 1.40854064 -0.96250273
v 2.53162784 1.84796019 2.9756250e-2
v 0.10545459 3.03565624 -2.87995623
v 5.5793943e-3 3.03565624 -1.72309719
v -0.96116059 3.03565624 -1.07989294
v -2.06679044 3.03565624 -1.43468941
v -2.47874833 3.03565624 -2.52031761
v -1.88682156 3.03565624 -3.51927737
v -0.73674307 3.03565624 -3.67933161
v 0.31418484 2.64925125 -2.95916205
v 0.19764619 2.64925125 -1.60928932
v -0.93038747 2.64925125 -0.85877104
v -2.22048378 2.64925125 -1.27276276
v -2.70117391 2.64925125 -2.53952029
v -2.01048838 2.64925125 -3.70514937
v -0.66852749 2.64925125 -3.89190752
v -1.14560429 3.26641354 -2.40522319
v 1.63397936 4.34679660 1.52798835
v 0.94571509 4.34679660 2.95718382
v -0.60080067 4.34679660 3.31016595
v -1.84101003 4.34679660 2.32113200
v -1.84101003 4.34679660 0.73484470
v -0.60080067 4.34679660 -0.25418926
v 0.94571509 4.34679660 9.8792874e-2
v 1.93896973 3.96039161 1.52798835
v 1.13587348 3.96039161 3.19563490
v -0.66866742 3.96039161 3.60750958
v -2.11579686 3.96039161 2.45346236
v -2.11579686 3.96039161 0.60251433
v -0.66866742 3.96039161 -0.55153289
v 1.13587348 3.96039161 -0.13965821
v -0.19403027 4.57755390 1.52798835
vt 0.0000000e+0 0.21089366
vt 0.0000000e+0 0.24553746
vt 0.0000000e+0 0.80835521
vt 2.2433369e-3 0.28230877
vt 1.4883469e-2 0.17775755
vt 2.8579319e-2 0.80442451
vt 4.8870781e-2 0.82485274
vt 6.9386625e-2 0.24130433
vt 7.1629962e-2 0.27807564
vt 7.4853753e-2 0.71364966
vt 9.7900389e-2 0.21996468
vt 0.11245587 0.17601154
vt 0.11807873 0.52295898
vt 0.15902934 0.54758286
vt 0.15902934 0.58006885
vt 0.17390674 0.21996468
vt 0.17782866 0.28425018
vt 0.18740718 0.59278701
vt 0.20745910 4.6533938e-2
vt 0.21102666 0.54200944
vt 0.22088162 0.23254882
vt 0.23359454 0.10529607
vt 0.23727941 0.67594381
vt 0.24211484 0.28033933
vt 0.25577126 0.52295898
vt 0.27059916 0.14875745
vt 0.27533601 0.43684688
vt 0.30863782 0.80575482
vt 0.30895107 1.8417149e-2
vt 0.30940023 0.52295898
vt 0.31491831 5.4947265e-2
vt 0.31867657 0.42168310
vt 0.34081078 7.2901725e-2
vt 0.34398862 0.79854714
vt 0.34398862 0.66074872
vt 0.35670740 0.49826066
vt 0.36089443 2.6482714e-2
vt 0.36641395 0.0000000e+0
vt 0.38335534 0.21043666
vt 0.38335534 3.0066835e-2
vt 0.38335534 0.43658270
vt 0.39020028 7.8434205e-2
vt 0.39107723 0.34713970
vt 0.39720204 0.55024993
vt 0.39720204 0.77124752
vt 0.41437105 0.19723539
vt 0.41926895 9.3819187e-2
vt 0.44847018 0.49838672
vt 0.46582110 0.29741012
vt 0.48457104 0.29741012
vt 0.49351623 0.26534884
vt 0.49472621 0.0000000e+0
vt 0.50151860 3.2046437e-2
vt 0.51677149 0.52295898
vt 0.51677149 0.79853847
vt 0.52575154 0.14913495
vt 0.53738894 0.48601206
vt 0.55130330 0.32484134
vt 0.58315398 0.30098603
vt 0.58315398 0.33378875
vt 0.58315398 0.40877710
vt 0.58998260 0.35517473
vt 0.59071697 0.32957202
vt 0.59682424 0.24731511
vt 0.60228120 5.5753450e-2
vt 0.61265876 0.72207093
vt 0.61265876 0.52295898
vt 0.61265876 0.59942652
vt 0.61545209 0.27519468
vt 0.62219385 2.9262386e-2
vt 0.62830195 0.66848336
vt 0.65248052 0.15242628
vt 0.65790750 0.62008089
vt 0.65803373 0.35156093
vt 0.65824160 0.52311604
vt 0.66255895 0.32957202
vt 0.66516250 0.76803455
vt 0.66759490 0.32650741
vt 0.67285844 0.29741012
vt 0.68640920 0.16254965
vt 0.68640920 0.30348354
vt 0.68640920 0.15419158
vt 0.71419538 0.23505192
vt 0.73184833 0.0000000e+0
vt 0.74477709 0.14515029
vt 0.75407490 0.27051456
vt 0.75526086 0.23648301
vt 0.77771446 2.7294956e-2
vt 0.80453921 0.27051456
vt 0.80453921 0.30313241
vt 0.82276644 0.37499933
vt 0.82276644 3.4233191e-2
vt 0.82276644 7.8020315e-2
vt 0.82276644 0.20107611
vt 0.82276644 0.24064671
vt 0.82276644 0.48557612
vt 0.82276644 0.53451699
vt 0.82276644 0.56779267
vt 0.82276644 0.64568263
vt 0.82276644 0.78566710
vt 0.82945479 0.71390174
vt 0.83228075 0.58812658
vt 0.83340666 0.26823553
vt 0.83486197 0.55342964
vt 0.83644113 0.22729366
vt 0.83730096 0.80277667
vt 0.83938404 0.51003451
vt 0.85013786 0.15267777
vt 0.85031362 0.30240138
vt 0.86237672 0.44176638
vt 0.86407019 1.0072313e-2
vt 0.87194701 0.59792612
vt 0.88695186 0.75121002
vt 0.89442982 0.75121002
vt 0.89694355 0.67285889
vt 0.89842051 0.51003451
vt 0.89871745 0.77324650
vt 0.89930684 0.57581728
vt 0.89969852 0.53244782
vt 0.90097535 0.55342964
vt 0.90620504 0.45244490
vt 0.90947927 0.17782610
vt 0.90948983 0.25679179
vt 0.91075519 0.20736809
vt 0.91089204 0.48164060
vt 0.91154354 0.22729366
vt 0.91191453 0.36727925
vt 0.92423847 0.27866813
vt 0.92557321 0.17782610
vt 0.93925658 0.45244490
vt 0.93994578 0.60659762
vt 0.94294655 0.0000000e+0
vt 0.95197194 0.72952568
vt 0.96376779 0.59792612
vt 0.96649985 0.54592364
vt 0.96672560 0.77759461
vt 0.97378466 0.75628359
vt 0.97556702 0.66516844
vt 0.97619116 0.57922719
vt 0.97636717 0.52575867
vt 0.98325319 0.27866813
vt 0.98651049 0.22081216
vt 0.98769431 0.48622518
vt 0.98889654 0.32166400
vt 0.99226814 0.13452809
vt 0.99555332 0.39901062
vt 0.99582123 0.45779438
vt 0.99761379 0.25281992
vt 0.99787380 0.19351322
vt 1.00000000 5.5388033e-2
vn -0.65366960 -0.75629760 2.7018418e-2
vn -0.66412766 -0.62128622 0.41585801
vn -0.25234358 0.73412941 -0.63037824
vn 0.39511658 -0.66389433 -0.63492300
vn 0.69590027 -0.46177261 0.54998988
vn 0.60392611 0.77269138 -0.19550264
vn -0.15706952 8.2917351e-2 0.98410054
vn -0.80261552 0.26514070 -0.53433018
vn 0.77061889 0.34105209 -0.53835861
vn -0.84396720 0.43209290 0.31782872
vn 0.34190025 0.90920197 -0.23760471
vn 0.53979970 0.72398767 0.42948590
vn 0.64570364 -0.29039308 -0.70621432
vn -0.91763093 -0.35610337 -0.17647625
vn -0.44262877 0.73308520 0.51639700
vn 0.84002183 0.54252109 -5.8479999e-3
vn -0.22564255 0.30655278 -0.92472203
vn -0.37550867 0.78480507 -0.49302560
vn 0.33924290 -0.25625084 0.90512417
vn 0.35704909 -0.38639386 -0.85042091
vn -0.43438466 0.87307187 0.22148469
vn 0.18109685 0.81481569 0.55070802
vn 0.43026227 0.28283397 -0.85725103
vn 0.56346772 0.81458486 0.13767946
vn 0.27428319 0.86386611 0.42249743
vn -0.19677751 0.78286337 0.59025719
vn -0.47293829 0.86386611 0.17339181
vn -0.53167109 0.78286337 -0.32318847
vn -6.3805847e-2 0.86386611 -0.49966404
vn 0.43339341 0.78286337 -0.44642479
vn 0.98544319 -0.15870127 -6.0955900e-2
vn 0.54361286 5.7493876e-2 0.83736462
vn -0.27076722 -0.51673934 0.81219799
vn -0.93733538 5.7493876e-2 0.34365219
vn -0.85309716 5.7493876e-2 -0.51857467
vn -9.2564494e-2 -0.68263508 -0.72487321
vn 0.69540490 5.7493876e-2 -0.71631451
vn 4.0117423e-18 1.00000000 8.4246589e-17
vn 0.62060950 0.77139309 -0.14070023
vn 0.47924870 0.83046889 0.28397554
vn 9.3741757e-2 0.73313961 0.67358651
vn -0.38349855 0.83046889 0.40404244
vn -0.67755780 0.73313961 -5.8495644e-2
vn -0.30857579 0.83046889 -0.46379134
vn 0.20779983 0.73313961 -0.64755350
vn 0.84038342 -0.24543957 -0.48323403
vn 0.85932589 -4.7821861e-2 0.50918767
vn 0.11432650 -0.55863075 0.82149932
vn -0.68763927 -4.7821861e-2 0.72447588
vn -0.99515412 -4.7821861e-2 -8.5914710e-2
vn -0.39437184 -0.70222944 -0.59274333
vn 0.30520327 -4.7821861e-2 -0.95108571
vn -3.2296496e-17 1.00000000 -2.4626078e-16
vn 0.54880864 0.83219564 7.9117031e-2
vn 0.29935489 0.87719846 0.37537916
vn -0.13252276 0.80331685 0.58062015
vn -0.43258035 0.87719846 0.20831972
vn -0.53657370 0.80331685 -0.25840027
vn -0.10683852 0.87719846 -0.46809015
vn 0.37132052 0.80331685 -0.46562121
vn 0.98065153 -0.11636942 -0.15741896
vn 0.61986347 0.10769649 0.77728421
vn -0.19310065 -0.49693730 0.84602923
vn -0.89572867 0.10769649 0.43136019
vn -0.89572867 0.10769649 -0.43136019
vn -0.16432081 -0.67430711 -0.71993652
vn 0.61986347 0.10769649 -0.77728421
vn 8.0076232e-18 1.00000000 7.0066703e-18
g Cube1_Cube1_auv
usemtl Cube1_auv
s 1
f 1/24/1 4/17/4 2/21/2
f 1/24/1 14/32/14 4/17/4
f 2/21/2 4/17/4 5/16/5
f 2/20/2 7/34/7 8/23/8
f 2/20/2 10/18/10 1/14/1
f 3/7/3 7/3/7 6/6/6
f 3/77/3 9/71/9 8/73/8
f 4/26/4 12/12/12 11/22/11
f 4/17/4 19/8/19 5/16/5
f 5/25/5 7/34/7 2/20/2
f 5/19/5 19/29/19 11/22/11
f 6/6/6 9/10/9 3/7/3
f 7/3/7 9/10/9 6/6/6
f 8/23/8 7/34/7 3/28/3
f 8/73/8 11/67/11 10/75/10
f 9/10/9 5/13/5 11/15/11
f 9/10/9 7/3/7 5/13/5
f 9/71/9 11/67/11 8/73/8
f 10/18/10 2/20/2 8/23/8
f 10/88/10 14/82/14 1/84/1
f 11/92/11 12/85/12 10/88/10
f 11/22/11 18/31/18 4/26/4
f 12/12/12 4/26/4 13/11/13
f 12/85/12 14/82/14 10/88/10
f 13/27/13 4/17/4 14/32/14
f 13/11/13 16/5/16 12/12/12
f 14/32/14 17/30/17 13/27/13
f 15/83/15 12/85/12 16/87/16
f 15/83/15 14/82/14 12/85/12
f 15/36/15 17/30/17 14/32/14
f 16/5/16 13/11/13 17/1/17
f 16/87/16 17/86/17 15/83/15
f 18/31/18 11/22/11 19/29/19
f 18/31/18 23/40/23 20/33/20
f 19/8/19 4/17/4 20/9/20
f 19/29/19 21/37/21 18/31/18
f 20/33/20 4/26/4 18/31/18
f 20/9/20 23/4/23 19/8/19
f 21/37/21 19/29/19 22/38/22
f 21/37/21 23/40/23 18/31/18
f 22/2/22 19/8/19 23/4/23
f 22/38/22 23/40/23 21/37/21
f 24/119/24 31/116/31 30/135/30
f 24/119/24 32/97/32 31/116/31
f 24/138/24 38/115/38 25/131/25
f 25/104/25 32/97/32 24/119/24
f 25/131/25 38/115/38 26/112/26
f 26/117/26 32/137/32 25/136/25
f 26/117/26 34/100/34 33/114/33
f 26/112/26 38/115/38 27/99/27
f 27/106/27 34/100/34 26/117/26
f 27/99/27 38/115/38 28/101/28
f 28/62/28 34/76/34 27/74/27
f 28/134/28 36/120/36 35/139/35
f 28/101/28 38/115/38 29/113/29
f 29/118/29 36/120/36 28/134/28
f 29/113/29 38/115/38 30/133/30
f 30/135/30 31/116/31 37/140/37
f 30/102/30 36/120/36 29/118/29
f 30/133/30 38/115/38 24/138/24
f 31/93/31 36/129/36 37/108/37
f 32/111/32 36/129/36 31/93/31
f 33/114/33 32/137/32 26/117/26
f 33/132/33 36/129/36 32/111/32
f 34/150/34 36/129/36 33/132/33
f 35/60/35 34/76/34 28/62/28
f 35/145/35 36/129/36 34/150/34
f 37/98/37 36/120/36 30/102/30
f 39/107/39 46/96/46 45/125/45
f 39/78/39 47/59/47 46/79/46
f 39/146/39 53/127/53 40/144/40
f 40/63/40 47/59/47 39/78/39
f 40/144/40 53/127/53 41/128/41
f 41/123/41 47/148/47 40/141/40
f 41/123/41 49/95/49 48/126/48
f 41/128/41 53/127/53 42/109/42
f 42/103/42 49/95/49 41/123/41
f 42/109/42 53/127/53 43/91/43
f 43/124/43 49/149/49 42/142/42
f 43/124/43 51/94/51 50/122/50
f 43/91/43 53/127/53 44/110/44
f 44/105/44 51/94/51 43/124/43
f 44/110/44 53/127/53 45/130/45
f 45/125/45 46/96/46 52/121/52
f 45/125/45 51/147/51 44/143/44
f 45/130/45 53/127/53 39/146/39
f 46/41/46 51/57/51 52/48/52
f 47/43/47 51/57/51 46/41/46
f 48/126/48 47/148/47 41/123/41
f 48/49/48 51/57/51 47/43/47
f 49/58/49 51/57/51 48/49/48
f 50/122/50 49/149/49 43/124/43
f 50/61/50 51/57/51 49/58/49
f 52/121/52 51/147/51 45/125/45
f 54/72/54 61/80/61 60/64/60
f 54/90/54 62/81/62 61/89/61
f 54/72/54 68/56/68 55/65/55
f 55/65/55 62/70/62 54/72/54
f 55/65/55 68/56/68 56/53/56
f 56/53/56 62/70/62 55/65/55
f 56/53/56 64/42/64 63/52/63
f 56/53/56 68/56/68 57/47/57
f 57/47/57 64/42/64 56/53/56
f 57/47/57 68/56/68 58/46/58
f 58/46/58 64/42/64 57/47/57
f 58/46/58 66/50/66 65/39/65
f 58/46/58 68/56/68 59/51/59
f 59/51/59 66/50/66 58/46/58
f 59/51/59 68/56/68 60/64/60
f 60/64/60 61/80/61 67/69/67
f 60/64/60 66/50/66 59/51/59
f 60/64/60 68/56/68 54/72/54
f 61/35/61 66/55/66 67/45/67
f 62/44/62 66/55/66 61/35/61
f 63/52/63 62/70/62 56/53/56
f 63/54/63 66/55/66 62/44/62
f 64/68/64 66/55/66 63/54/63
f 65/39/65 64/42/64 58/46/58
f 65/66/65 66/55/66 64/68/64
f 67/69/67 66/50/66 60/64/60
