# Exported from Wings 3D 1.5.4
mtllib rock_1.mtl
o sphere1
#25 vertices, 46 faces
v 2.57850194 3.88551886 0.0000000e+0
v 1.66250775 4.28307210 1.66250775
v 8.6633829e-3 3.32715590 3.17114214
v -1.66250775 4.30787256 1.66250775
v -2.45430811 4.80006195 3.2970758e-16
v -0.99618589 4.63523061 -1.66250775
v 0.39138320 4.79891894 -2.08260668
v 2.23020463 4.06176590 -1.66250775
v 3.25661672 3.09757535 0.0000000e+0
v 2.68999405 1.84146250 2.68999405
v 2.3294166e-16 2.35083534 3.80422607
v -1.98620264 1.96999583 2.03434075
v -3.80422607 2.35083534 4.6588333e-16
v -2.68999405 2.35083534 -2.68999405
v -6.9882499e-16 1.65401469 -3.31980529
v 2.68999405 1.81766003 -2.68999405
v 3.76057127 -2.3979657e-2 1.06159012
v 3.16880174 -2.3979657e-2 2.93738885
v 2.1558475e-16 -2.3979657e-2 3.67488238
v -3.09060727 -2.3979657e-2 1.74062659
v -3.73312785 -2.3979657e-2 4.5004329e-16
v -2.02428349 -2.3979657e-2 -2.54645112
v -6.8450184e-16 -2.3979657e-2 -3.67488238
v 2.59853425 -2.3979657e-2 -1.41317129
v 0.0000000e+0 5.26548281 0.0000000e+0
vt 0.0000000e+0 0.14419373
vt 0.0000000e+0 0.40553826
vt 0.0000000e+0 0.69627287
vt 1.6778883e-2 0.81734466
vt 2.8373301e-2 0.95417605
vt 3.2652091e-2 4.0692710e-2
vt 4.3654527e-2 0.52459751
vt 6.4117763e-2 0.28074374
vt 0.13301956 0.99053422
vt 0.17004740 0.80499027
vt 0.18720937 0.71124595
vt 0.18748890 0.56066298
vt 0.19822889 0.62396490
vt 0.19968171 0.43000116
vt 0.20749719 0.0000000e+0
vt 0.20749719 0.40553826
vt 0.21234004 1.00000000
vt 0.31141066 0.69627287
vt 0.31160178 0.73477903
vt 0.31452036 0.69627287
vt 0.31452036 0.86972354
vt 0.31458513 0.83656446
vt 0.31919116 0.34327477
vt 0.34975705 0.54426108
vt 0.37802775 0.10672651
vt 0.37885326 0.44114843
vt 0.41348013 0.20276913
vt 0.41348013 0.36501494
vt 0.41348013 0.37186197
vt 0.42534937 0.47957217
vt 0.45365149 0.99064142
vt 0.47053717 0.84068007
vt 0.47387766 0.63077687
vt 0.48776684 0.71393921
vt 0.50229149 0.17451831
vt 0.52303461 0.36501494
vt 0.55981231 8.2943516e-2
vt 0.56349947 0.99412016
vt 0.56790144 0.28334252
vt 0.57654098 0.59393727
vt 0.57946504 0.53774281
vt 0.59393892 0.73553434
vt 0.61545308 0.69627287
vt 0.61545308 0.82624968
vt 0.61545308 0.86693452
vt 0.63472188 0.19666374
vt 0.63750341 0.82624968
vt 0.64755107 0.31206512
vt 0.66720059 0.0000000e+0
vt 0.67350815 0.60955636
vt 0.67498298 0.37338588
vt 0.69679620 0.94889131
vt 0.73540753 0.48299415
vt 0.74195369 0.11179470
vt 0.74209613 0.90338970
vt 0.75134481 0.75276281
vt 0.76018528 0.29940560
vt 0.79082367 0.20907724
vn 0.62332618 0.78014988 5.3203811e-2
vn 0.52070626 0.73488002 0.43453002
vn -7.6572052e-2 0.63720267 0.76688296
vn -0.49804949 0.58810096 0.63724718
vn -0.58980347 0.80462210 -6.8666944e-2
vn -0.31837139 0.81980731 -0.47597860
vn 6.7027902e-2 0.68512419 -0.72533586
vn 0.63190486 0.71222726 -0.30566089
vn 0.93664084 0.35023666 -6.1824723e-3
vn 0.63494947 0.33760631 0.69488211
vn -0.25544296 0.26081790 0.93097955
vn -0.66377688 0.27766122 0.69448146
vn -0.92746083 0.25015975 0.27791457
vn -0.59639112 0.25440600 -0.76131151
vn 0.17411585 0.11537763 -0.97794257
vn 0.65483901 0.10339481 -0.74866239
vn 0.87954174 -0.47246209 5.6443745e-2
vn 0.64256843 -0.30552434 0.70268108
vn 1.6750916e-2 -0.72946657 0.68381133
vn -0.61840744 -0.55226979 0.55907989
vn -0.74520291 -0.64715566 -0.16081720
vn -0.53765802 -0.60594622 -0.58630456
vn -7.5481489e-4 -0.74006701 -0.67253271
vn 0.55527032 -0.71534535 -0.42421210
vn 0.11091249 0.98757919 0.11129134
g sphere1_sphere1_auv
usemtl sphere1_auv
s 1
f 1/40/1 9/41/9 8/50/8
f 1/58/1 25/46/25 2/54/2
f 2/33/2 9/41/9 1/40/1
f 2/54/2 25/46/25 3/49/3
f 3/13/3 10/24/10 2/18/2
f 3/52/3 12/44/12 11/55/11
f 3/49/3 25/46/25 4/37/4
f 4/47/4 12/43/12 3/56/3
f 4/38/4 13/32/13 12/45/12
f 4/37/4 25/46/25 5/35/5
f 5/31/5 13/32/13 4/38/4
f 5/31/5 14/22/14 13/32/13
f 5/35/5 25/46/25 6/39/6
f 6/39/6 14/28/14 5/35/5
f 6/39/6 25/46/25 7/48/7
f 7/9/7 14/21/14 6/17/6
f 7/9/7 16/4/16 15/10/15
f 7/48/7 25/46/25 8/57/8
f 8/50/8 9/41/9 16/53/16
f 8/5/8 16/4/16 7/9/7
f 8/57/8 25/46/25 1/58/1
f 9/41/9 24/51/24 16/53/16
f 10/30/10 9/41/9 2/33/2
f 10/30/10 17/36/17 9/41/9
f 10/24/10 19/14/19 18/26/18
f 11/12/11 10/24/10 3/13/3
f 11/12/11 19/14/19 10/24/10
f 11/12/11 20/2/20 19/14/19
f 12/7/12 20/2/20 11/12/11
f 13/32/13 20/42/20 12/45/12
f 14/22/14 21/34/21 13/32/13
f 14/21/14 23/11/23 22/19/22
f 15/10/15 14/21/14 7/9/7
f 15/10/15 23/11/23 14/21/14
f 15/10/15 24/3/24 23/11/23
f 16/4/16 24/3/24 15/10/15
f 17/1/17 19/15/19 24/8/24
f 17/36/17 24/51/24 9/41/9
f 18/29/18 17/36/17 10/30/10
f 18/6/18 19/15/19 17/1/17
f 20/25/20 24/8/24 19/15/19
f 21/34/21 20/42/20 13/32/13
f 21/27/21 23/16/23 20/25/20
f 22/20/22 21/34/21 14/22/14
f 22/23/22 23/16/23 21/27/21
f 24/8/24 20/25/20 23/16/23
