# Exported from Wings 3D 1.5.4
mtllib workbench.mtl
o Cube1
#104 vertices, 156 faces
v -4.97615875 9.51078940 -10.00397100
v -4.90629757 9.51078940 10.00970302
v -4.97615875 9.96078940 -10.00397100
v -4.90629757 9.96078940 10.00970302
v -3.33406276 9.51078940 -10.00970302
v -3.26420157 9.51078940 10.00397100
v -3.33406276 9.96078940 -10.00970302
v -3.26420157 9.96078940 10.00397100
v 3.35484000 9.51078940 -10.01738623
v 3.07540377 9.51078940 9.99445885
v 3.35484000 9.96078940 -10.01738623
v 3.07540377 9.96078940 9.99445885
v 4.99678593 9.51078940 -9.99445885
v 4.71734971 9.51078940 10.01738623
v 4.99678593 9.96078940 -9.99445885
v 4.71734971 9.96078940 10.01738623
v 0.99310828 9.51078940 -9.98569479
v 1.44716795 9.51078940 10.02294979
v 0.99310828 9.96078940 -9.98569479
v 1.44716795 9.96078940 10.02294979
v 2.63479162 9.51078940 -10.02294979
v 3.08885128 9.51078940 9.98569479
v 2.63479162 9.96078940 -10.02294979
v 3.08885128 9.96078940 9.98569479
v -0.94024939 9.51078940 -10.00061054
v -0.79354192 9.51078940 10.01264769
v -0.94024939 9.96078940 -10.00061054
v -0.79354192 9.96078940 10.01264769
v 0.70181249 9.51078940 -10.01264769
v 0.84851996 9.51078940 10.00061054
v 0.70181249 9.96078940 -10.01264769
v 0.84851996 9.96078940 10.00061054
v -2.67365885 9.51078940 -10.02336191
v -3.14168707 9.51078940 9.98496080
v -2.67365885 9.96078940 -10.02336191
v -3.14168707 9.96078940 9.98496080
v -1.03200192 9.51078940 -9.98496080
v -1.50003015 9.51078940 10.02336191
v -1.03200192 9.96078940 -9.98496080
v -1.50003015 9.96078940 10.02336191
v 3.13209038 0.0000000e+0 8.14309791
v 3.13209038 0.0000000e+0 9.54869121
v 3.13209038 9.63488703 8.14309791
v 3.13209038 9.63488703 9.54869121
v 4.53768368 0.0000000e+0 8.14309791
v 4.53768368 0.0000000e+0 9.54869121
v 4.53768368 9.63488703 8.14309791
v 4.53768368 9.63488703 9.54869121
v -4.70086898 0.0000000e+0 8.14309791
v -4.70086898 0.0000000e+0 9.54869121
v -4.70086898 9.63488703 8.14309791
v -4.70086898 9.63488703 9.54869121
v -3.29527568 0.0000000e+0 8.14309791
v -3.29527568 0.0000000e+0 9.54869121
v -3.29527568 9.63488703 8.14309791
v -3.29527568 9.63488703 9.54869121
v 3.13209038 0.0000000e+0 -9.78156625
v 3.13209038 0.0000000e+0 -8.37597295
v 3.13209038 9.63488703 -9.78156625
v 3.13209038 9.63488703 -8.37597295
v 4.53768368 0.0000000e+0 -9.78156625
v 4.53768368 0.0000000e+0 -8.37597295
v 4.53768368 9.63488703 -9.78156625
v 4.53768368 9.63488703 -8.37597295
v -4.70086898 0.0000000e+0 -9.78156625
v -4.70086898 0.0000000e+0 -8.37597295
v -4.70086898 9.63488703 -9.78156625
v -4.70086898 9.63488703 -8.37597295
v -3.29527568 0.0000000e+0 -9.78156625
v -3.29527568 0.0000000e+0 -8.37597295
v -3.29527568 9.63488703 -9.78156625
v -3.29527568 9.63488703 -8.37597295
v -3.41632000 7.92304152 8.36379594
v -3.41632000 7.92304152 9.28283594
v -3.41632000 9.48720152 8.36379594
v -3.41632000 9.48720152 9.28283594
v 3.41632000 7.92304152 8.36379594
v 3.41632000 7.92304152 9.28283594
v 3.41632000 9.48720152 8.36379594
v 3.41632000 9.48720152 9.28283594
v -3.41632000 7.92304152 -9.58668523
v -3.41632000 7.92304152 -8.66764523
v -3.41632000 9.48720152 -9.58668523
v -3.41632000 9.48720152 -8.66764523
v 3.41632000 7.92304152 -9.58668523
v 3.41632000 7.92304152 -8.66764523
v 3.41632000 9.48720152 -9.58668523
v 3.41632000 9.48720152 -8.66764523
v 3.50092346 7.81458374 -8.97400000
v 3.50092346 7.81458374 8.97400000
v 3.50092346 9.47458374 -8.97400000
v 3.50092346 9.47458374 8.97400000
v 4.29292346 7.81458374 -8.97400000
v 4.29292346 7.81458374 8.97400000
v 4.29292346 9.47458374 -8.97400000
v 4.29292346 9.47458374 8.97400000
v -4.45758220 7.81458374 -8.97400000
v -4.45758220 7.81458374 8.97400000
v -4.45758220 9.47458374 -8.97400000
v -4.45758220 9.47458374 8.97400000
v -3.66558220 7.81458374 -8.97400000
v -3.66558220 7.81458374 8.97400000
v -3.66558220 9.47458374 -8.97400000
v -3.66558220 9.47458374 8.97400000
vt 0.0000000e+0 0.59424912
vt 0.0000000e+0 0.59538964
vt 0.0000000e+0 0.60875468
vt 0.0000000e+0 0.62211973
vt 0.0000000e+0 0.62211973
vt 0.0000000e+0 0.63548477
vt 0.0000000e+0 0.63548477
vt 0.0000000e+0 0.64884981
vt 0.0000000e+0 0.64884981
vt 0.0000000e+0 0.66221486
vt 0.0000000e+0 0.66221486
vt 0.0000000e+0 0.67557990
vt 0.0000000e+0 0.68894495
vt 0.0000000e+0 0.70230999
vt 0.0000000e+0 0.71567503
vt 0.0000000e+0 0.71567503
vt 0.0000000e+0 0.72904008
vt 0.0000000e+0 0.77834224
vt 0.0000000e+0 0.77834224
vt 0.0000000e+0 0.82764440
vt 0.0000000e+0 0.87694656
vt 0.0000000e+0 0.87694656
vt 0.0000000e+0 0.92624872
vt 0.0000000e+0 0.97270442
vt 0.0000000e+0 0.97270442
vt 1.3877788e-17 0.92624872
vt 2.7755576e-17 1.00000000
vt 1.1102230e-16 0.67557990
vt 1.1102230e-16 0.70230999
vt 2.2204460e-16 0.60875468
vt 1.3900484e-2 0.0000000e+0
vt 4.8757370e-2 0.59538964
vt 6.2657853e-2 1.1405166e-3
vt 6.2657853e-2 1.1405166e-3
vt 7.6558337e-2 0.59538964
vt 0.11141522 0.0000000e+0
vt 0.12531571 1.1064773e-3
vt 0.12531571 0.59424912
vt 0.13880132 0.59536516
vt 0.17407386 0.0000000e+0
vt 0.18755948 0.59425868
vt 0.18755948 0.59425868
vt 0.20104509 0.0000000e+0
vt 0.20293007 0.97270442
vt 0.20293007 1.00000000
vt 0.20293007 0.92624872
vt 0.20293007 0.97270442
vt 0.20293007 0.97270442
vt 0.20293007 1.00000000
vt 0.20293007 0.92624872
vt 0.20293007 0.97270442
vt 0.23631763 0.59536516
vt 0.24980325 1.1064773e-3
vt 0.24980325 6.8094541e-4
vt 0.25810253 0.59503468
vt 0.29856920 0.0000000e+0
vt 0.30686848 0.59435374
vt 0.31516777 0.0000000e+0
vt 0.35563444 0.59503468
vt 0.36393372 3.5750476e-4
vt 0.36393372 6.8094541e-4
vt 0.36829095 0.59475321
vt 0.40586014 0.97270442
vt 0.40586014 1.00000000
vt 0.40586014 0.92624872
vt 0.40586014 0.97270442
vt 0.40586014 1.00000000
vt 0.40586014 0.92624872
vt 0.40586014 0.97270442
vt 0.41270312 0.0000000e+0
vt 0.41706034 0.59439571
vt 0.41706034 0.59439571
vt 0.42141757 0.0000000e+0
vt 0.46582974 0.59475321
vt 0.47018697 0.59440806
vt 0.47018697 3.5750476e-4
vt 0.47226185 0.0000000e+0
vt 0.51895738 0.59457830
vt 0.52103226 1.7024154e-4
vt 0.52310714 0.59457830
vt 0.53305734 0.74240512
vt 0.53305734 0.75577016
vt 0.53305734 0.76913521
vt 0.53305734 0.87694656
vt 0.53305734 0.92340226
vt 0.53305734 0.92624872
vt 0.53305734 0.72904008
vt 0.53305734 0.72904008
vt 0.53305734 0.74240512
vt 0.53305734 0.77834224
vt 0.53305734 0.77834224
vt 0.53305734 0.79170728
vt 0.53305734 0.82764440
vt 0.53305734 0.82764440
vt 0.53305734 0.87410010
vt 0.53305734 0.87694656
vt 0.56035292 0.87694656
vt 0.56035292 0.91869282
vt 0.56035292 0.92340226
vt 0.56035292 0.82764440
vt 0.56035292 0.87410010
vt 0.56035292 0.82764440
vt 0.56035292 0.87410010
vt 0.56980267 0.0000000e+0
vt 0.57187755 0.59440806
vt 0.58182805 0.77834224
vt 0.58182805 0.77834224
vt 0.58182805 0.79170728
vt 0.58182805 0.79170728
vt 0.58182805 0.80507232
vt 0.58182805 0.81843737
vt 0.58182805 0.74240512
vt 0.58182805 0.75577016
vt 0.58182805 0.76913521
vt 0.58182805 0.72904008
vt 0.58182805 0.74240512
vt 0.58182805 0.75577016
vt 0.58182805 0.76913521
vt 0.58182805 0.72904008
vt 0.58182805 0.74240512
vt 0.58182805 0.75577016
vt 0.58764849 0.82764440
vt 0.58764849 0.87410010
vt 0.58764849 0.87410010
vt 0.59441168 0.71567503
vt 0.59441168 0.72904008
vt 0.59441168 0.70230999
vt 0.59441168 0.71567503
vt 0.59441168 0.68894495
vt 0.59441168 0.70230999
vt 0.59441168 0.66221486
vt 0.59441168 0.64884981
vt 0.59441168 0.66221486
vt 0.59441168 0.67557990
vt 0.59441168 0.67557990
vt 0.59441168 0.68894495
vt 0.59441168 0.63548477
vt 0.59441168 0.64884981
vt 0.59441168 0.62211973
vt 0.59441168 0.63548477
vt 0.59441168 0.60875468
vt 0.59441168 0.62211973
vt 0.59441168 0.0000000e+0
vt 0.59441168 0.58235950
vt 0.59441168 0.59538964
vt 0.59441168 0.60875468
vt 0.59441168 0.53305734
vt 0.59441168 0.58235950
vt 0.59441168 0.63166166
vt 0.59441168 0.63166166
vt 0.59441168 0.68096382
vt 0.59441168 0.53305734
vt 0.60209917 0.91869282
vt 0.60209917 0.87694656
vt 0.60879021 0.97270442
vt 0.60879021 1.00000000
vt 0.60879021 0.97270442
vt 0.60879021 1.00000000
vt 0.60879021 0.92624872
vt 0.60879021 0.97270442
vt 0.61494407 0.82764440
vt 0.61494407 0.87410010
vt 0.61793416 0.0000000e+0
vt 0.61793416 0.58235950
vt 0.61793416 0.58235950
vt 0.61793416 0.63166166
vt 0.61793416 0.63166166
vt 0.61793416 0.68096382
vt 0.61793416 0.53305734
vt 0.61793416 5.5511151e-17
vt 0.61793416 0.53305734
vt 0.61793416 0.58235950
vt 0.61793416 0.53305734
vt 0.63059875 0.77834224
vt 0.63059875 0.79170728
vt 0.63059875 0.80507232
vt 0.63059875 0.81843737
vt 0.63059875 0.75577016
vt 0.63059875 0.76913521
vt 0.63059875 0.72904008
vt 0.63059875 0.74240512
vt 0.63059875 0.74240512
vt 0.63059875 0.75577016
vt 0.64145663 0.0000000e+0
vt 0.64145663 0.53305734
vt 0.64145663 0.58235950
vt 0.64145663 0.0000000e+0
vt 0.64145663 0.53305734
vt 0.64145663 0.53305734
vt 0.66497911 0.0000000e+0
vt 0.66497911 0.0000000e+0
vt 0.66497911 0.53305734
vt 0.66497911 0.53305734
vt 0.68850159 0.0000000e+0
vt 0.68850159 0.28615708
vt 0.68850159 0.57231416
vt 0.68850159 0.90021749
vt 0.68850159 0.53305734
vt 0.68850159 0.57231416
vt 0.68850159 0.85847124
vt 0.68850159 0.0000000e+0
vt 0.68850159 0.28615708
vt 0.68850159 0.85847124
vt 0.73024784 0.28615708
vt 0.73024784 0.57231416
vt 0.73024784 0.85847124
vt 0.73024784 0.85847124
vt 0.73024784 0.90021749
vt 0.73024784 5.5511151e-17
vt 0.73024784 0.85847124
vt 0.73024784 0.90021749
vt 0.73024784 0.0000000e+0
vt 0.73024784 0.28615708
vt 0.77199410 0.85847124
vt 0.77199410 0.0000000e+0
vt 0.77199410 0.28615708
vt 0.77199410 0.57231416
vt 0.77199410 0.85847124
vt 0.77199410 0.90021749
vt 0.77199410 0.28615708
vt 0.77199410 0.85847124
vt 0.77199410 0.90021749
vt 0.77199410 0.28615708
vt 0.77199410 0.57231416
vt 0.77199410 0.85847124
vt 0.77199410 0.0000000e+0
vt 0.77199410 0.28615708
vt 0.77199410 0.57231416
vt 0.81172028 0.97270442
vt 0.81172028 1.00000000
vt 0.81172028 0.92624872
vt 0.81172028 0.97270442
vt 0.81374036 0.90021749
vt 0.81374036 0.28615708
vt 0.81374036 0.28615708
vt 0.81374036 0.57231416
vt 0.81374036 0.57231416
vt 0.81374036 0.85847124
vt 0.81374036 0.85847124
vt 0.81374036 0.90021749
vt 0.81374036 0.0000000e+0
vt 0.81374036 0.28615708
vt 0.81374036 0.57231416
vt 0.81374036 0.85847124
vt 0.85548662 0.28615708
vt 0.85548662 0.28615708
vt 0.85548662 0.57231416
vt 0.85548662 5.5511151e-17
vt 0.85548662 0.57231416
vt 0.85548662 0.57231416
vt 0.85548662 0.85847124
vt 0.85548662 0.85847124
vt 0.85548662 0.90021749
vt 0.85548662 0.90021749
vt 0.85548662 5.5511151e-17
vt 0.85548662 0.28615708
vt 0.85548662 0.85847124
vt 0.85548662 0.28615708
vt 0.85548662 0.57231416
vt 0.89723287 0.57231416
vt 0.89723287 0.0000000e+0
vt 0.89723287 0.28615708
vt 0.89723287 0.85847124
vt 0.89723287 0.90021749
vt 0.89723287 0.28615708
vt 0.89723287 0.28615708
vt 0.89723287 0.32790334
vt 0.89723287 0.32790334
vt 0.89723287 0.36964959
vt 0.89723287 0.57231416
vt 0.93897913 0.0000000e+0
vt 0.93897913 0.28615708
vt 0.93897913 0.32790334
vt 0.93897913 0.32790334
vt 0.93897913 0.36964959
vt 0.93897913 0.28615708
vn -0.57936208 -0.57735027 -0.57533142
vn -0.57533142 -0.57735027 0.57936208
vn -0.57936208 0.57735027 -0.57533142
vn -0.57533142 0.57735027 0.57936208
vn 0.57533142 -0.57735027 -0.57936208
vn 0.57936208 -0.57735027 0.57533142
vn 0.57533142 0.57735027 -0.57936208
vn 0.57936208 0.57735027 0.57533142
vn -0.56923292 -0.57735027 -0.58535506
vn -0.58535506 -0.57735027 0.56923292
vn -0.56923292 0.57735027 -0.58535506
vn -0.58535506 0.57735027 0.56923292
vn 0.58535506 -0.57735027 -0.56923292
vn 0.56923292 -0.57735027 0.58535506
vn 0.58535506 0.57735027 -0.56923292
vn 0.56923292 0.57735027 0.58535506
vn -0.59030020 -0.57735027 -0.56410313
vn -0.56410313 -0.57735027 0.59030020
vn -0.59030020 0.57735027 -0.56410313
vn -0.56410313 0.57735027 0.59030020
vn 0.56410313 -0.57735027 -0.59030020
vn 0.59030020 -0.57735027 0.56410313
vn 0.56410313 0.57735027 -0.59030020
vn 0.59030020 0.57735027 0.56410313
vn -0.58156692 -0.57735027 -0.57310260
vn -0.57310260 -0.57735027 0.58156692
vn -0.58156692 0.57735027 -0.57310260
vn -0.57310260 0.57735027 0.58156692
vn 0.57310260 -0.57735027 -0.58156692
vn 0.58156692 -0.57735027 0.57310260
vn 0.57310260 0.57735027 -0.58156692
vn 0.58156692 0.57735027 0.57310260
vn -0.56369088 -0.57735027 -0.59069388
vn -0.59069388 -0.57735027 0.56369088
vn -0.56369088 0.57735027 -0.59069388
vn -0.59069388 0.57735027 0.56369088
vn 0.59069388 -0.57735027 -0.56369088
vn 0.56369088 -0.57735027 0.59069388
vn 0.59069388 0.57735027 -0.56369088
vn 0.56369088 0.57735027 0.59069388
vn -0.57735027 -0.57735027 -0.57735027
vn -0.57735027 -0.57735027 0.57735027
vn -0.57735027 0.57735027 -0.57735027
vn -0.57735027 0.57735027 0.57735027
vn 0.57735027 -0.57735027 -0.57735027
vn 0.57735027 -0.57735027 0.57735027
vn 0.57735027 0.57735027 -0.57735027
vn 0.57735027 0.57735027 0.57735027
vn -0.57735027 -0.57735027 -0.57735027
vn -0.57735027 -0.57735027 0.57735027
vn -0.57735027 0.57735027 -0.57735027
vn -0.57735027 0.57735027 0.57735027
vn 0.57735027 -0.57735027 -0.57735027
vn 0.57735027 -0.57735027 0.57735027
vn 0.57735027 0.57735027 -0.57735027
vn 0.57735027 0.57735027 0.57735027
vn -0.57735027 -0.57735027 -0.57735027
vn -0.57735027 -0.57735027 0.57735027
vn -0.57735027 0.57735027 -0.57735027
vn -0.57735027 0.57735027 0.57735027
vn 0.57735027 -0.57735027 -0.57735027
vn 0.57735027 -0.57735027 0.57735027
vn 0.57735027 0.57735027 -0.57735027
vn 0.57735027 0.57735027 0.57735027
vn -0.57735027 -0.57735027 -0.57735027
vn -0.57735027 -0.57735027 0.57735027
vn -0.57735027 0.57735027 -0.57735027
vn -0.57735027 0.57735027 0.57735027
vn 0.57735027 -0.57735027 -0.57735027
vn 0.57735027 -0.57735027 0.57735027
vn 0.57735027 0.57735027 -0.57735027
vn 0.57735027 0.57735027 0.57735027
vn -0.57735027 -0.57735027 -0.57735027
vn -0.57735027 -0.57735027 0.57735027
vn -0.57735027 0.57735027 -0.57735027
vn -0.57735027 0.57735027 0.57735027
vn 0.57735027 -0.57735027 -0.57735027
vn 0.57735027 -0.57735027 0.57735027
vn 0.57735027 0.57735027 -0.57735027
vn 0.57735027 0.57735027 0.57735027
vn -0.57735027 -0.57735027 -0.57735027
vn -0.57735027 -0.57735027 0.57735027
vn -0.57735027 0.57735027 -0.57735027
vn -0.57735027 0.57735027 0.57735027
vn 0.57735027 -0.57735027 -0.57735027
vn 0.57735027 -0.57735027 0.57735027
vn 0.57735027 0.57735027 -0.57735027
vn 0.57735027 0.57735027 0.57735027
vn -0.57735027 -0.57735027 -0.57735027
vn -0.57735027 -0.57735027 0.57735027
vn -0.57735027 0.57735027 -0.57735027
vn -0.57735027 0.57735027 0.57735027
vn 0.57735027 -0.57735027 -0.57735027
vn 0.57735027 -0.57735027 0.57735027
vn 0.57735027 0.57735027 -0.57735027
vn 0.57735027 0.57735027 0.57735027
vn -0.57735027 -0.57735027 -0.57735027
vn -0.57735027 -0.57735027 0.57735027
vn -0.57735027 0.57735027 -0.57735027
vn -0.57735027 0.57735027 0.57735027
vn 0.57735027 -0.57735027 -0.57735027
vn 0.57735027 -0.57735027 0.57735027
vn 0.57735027 0.57735027 -0.57735027
vn 0.57735027 0.57735027 0.57735027
g Cube1_Cube1_auv
usemtl Cube1_auv
s 1
f 1/105/1 5/80/5 2/104/2
f 2/139/2 3/6/3 1/5/1
f 2/104/2 5/80/5 6/79/6
f 2/119/2 8/181/8 4/120/4
f 3/116/3 5/87/5 1/115/1
f 3/75/3 8/79/8 7/78/7
f 4/140/4 3/6/3 2/139/2
f 4/77/4 8/79/8 3/75/3
f 5/137/5 8/9/8 6/7/6
f 6/180/6 8/181/8 2/119/2
f 7/81/7 5/87/5 3/116/3
f 7/138/7 8/9/8 5/137/5
f 9/59/9 13/57/13 10/61/10
f 10/135/10 11/13/11 9/28/9
f 10/61/10 13/57/13 14/58/14
f 10/120/10 16/183/16 12/121/12
f 11/177/11 13/110/13 9/176/9
f 11/55/11 16/56/16 15/57/15
f 12/136/12 11/13/11 10/135/10
f 12/54/12 16/56/16 11/55/11
f 13/129/13 16/14/16 14/13/14
f 14/182/14 16/183/16 10/120/10
f 15/111/15 13/110/13 11/177/11
f 15/130/15 16/14/16 13/129/13
f 17/41/17 21/39/21 18/40/18
f 18/127/18 19/15/19 17/29/17
f 18/40/18 21/39/21 22/37/22
f 18/90/18 24/109/24 20/92/20
f 19/176/19 21/108/21 17/175/17
f 19/42/19 24/53/24 23/52/23
f 20/128/20 19/15/19 18/127/18
f 20/43/20 24/53/24 19/42/19
f 21/125/21 24/17/24 22/16/22
f 22/107/22 24/109/24 18/90/18
f 23/110/23 21/108/21 19/176/19
f 23/126/23 24/17/24 21/125/21
f 25/72/25 29/62/29 26/70/26
f 26/145/26 27/30/27 25/2/25
f 26/70/26 29/62/29 30/60/30
f 26/89/26 32/113/32 28/82/28
f 27/179/27 29/117/29 25/178/25
f 27/71/27 32/76/32 31/74/31
f 28/146/28 27/30/27 26/145/26
f 28/73/28 32/76/32 27/71/27
f 29/132/29 32/10/32 30/8/30
f 30/112/30 32/113/32 26/89/26
f 31/118/31 29/117/29 27/179/27
f 31/131/31 32/10/32 29/132/29
f 33/32/33 37/1/37 34/34/34
f 34/141/34 35/4/35 33/3/33
f 34/34/34 37/1/37 38/31/38
f 34/82/34 40/114/40 36/83/36
f 35/175/35 37/106/37 33/174/33
f 35/35/35 40/36/40 39/38/39
f 36/142/36 35/4/35 34/141/34
f 36/33/36 40/36/40 35/35/35
f 37/133/37 40/12/40 38/11/38
f 38/113/38 40/114/40 34/82/34
f 39/108/39 37/106/37 35/175/35
f 39/134/39 40/12/40 37/133/37
f 41/208/41 45/197/45 42/206/42
f 42/261/42 43/258/43 41/255/41
f 42/206/42 45/197/45 46/200/46
f 42/235/42 48/250/48 44/243/44
f 43/234/43 45/226/45 41/241/41
f 43/98/43 48/154/48 47/153/47
f 44/266/44 43/258/43 42/261/42
f 44/97/44 48/154/48 43/98/43
f 45/260/45 48/257/48 46/249/46
f 46/245/46 48/250/48 42/235/42
f 47/223/47 45/226/45 43/234/43
f 47/263/47 48/257/48 45/260/45
f 49/219/49 53/211/53 50/214/50
f 50/262/50 51/259/51 49/256/49
f 50/214/50 53/211/53 54/206/54
f 50/199/50 56/210/56 52/203/52
f 51/236/51 53/227/53 49/242/49
f 51/253/51 56/263/56 55/264/55
f 52/270/52 51/259/51 50/262/50
f 52/257/52 56/263/56 51/253/51
f 53/271/53 56/265/56 54/261/54
f 54/205/54 56/210/56 50/199/50
f 55/224/55 53/227/53 51/236/51
f 55/276/55 56/265/56 53/271/53
f 57/254/57 61/240/61 58/251/58
f 58/212/58 59/195/59 57/201/57
f 58/251/58 61/240/61 62/238/62
f 58/237/58 64/252/64 60/244/60
f 59/239/59 61/228/61 57/243/57
f 59/222/59 64/238/64 63/233/63
f 60/204/60 59/195/59 58/212/58
f 60/221/60 64/238/64 59/222/59
f 61/216/61 64/205/64 62/204/62
f 62/247/62 64/252/64 58/237/58
f 63/225/63 61/228/61 59/239/59
f 63/217/63 64/205/64 61/216/61
f 65/273/65 69/267/69 66/272/66
f 66/213/66 67/196/67 65/202/65
f 66/272/66 69/267/69 70/265/70
f 66/209/66 72/220/72 68/213/68
f 67/246/67 69/241/69 65/248/65
f 67/269/67 72/274/72 71/275/71
f 68/205/68 67/196/67 66/213/66
f 68/268/68 72/274/72 67/269/67
f 69/217/69 72/207/72 70/205/70
f 70/215/70 72/220/72 66/209/66
f 71/234/71 69/241/69 67/246/67
f 71/218/71 72/207/72 69/217/69
f 73/49/73 77/27/77 74/48/74
f 74/97/74 75/85/75 73/84/73
f 74/48/74 77/27/77 78/25/78
f 74/68/74 80/160/80 76/69/76
f 75/51/75 77/26/77 73/50/73
f 75/67/75 80/155/80 79/156/79
f 76/99/76 75/85/75 74/97/74
f 76/66/76 80/155/80 75/67/75
f 77/161/77 80/123/80 78/122/78
f 78/159/78 80/160/80 74/68/74
f 79/24/79 77/26/77 75/51/75
f 79/162/79 80/123/80 77/161/77
f 81/64/81 85/45/85 82/63/82
f 82/122/82 83/103/83 81/102/81
f 82/63/82 85/45/85 86/44/86
f 82/159/82 88/232/88 84/160/84
f 83/66/83 85/46/85 81/65/81
f 83/158/83 88/229/88 87/230/87
f 84/124/84 83/103/83 82/122/82
f 84/157/84 88/229/88 83/158/83
f 85/100/85 88/95/88 86/94/86
f 86/231/86 88/232/88 82/159/82
f 87/47/87 85/46/85 83/66/83
f 87/101/87 88/95/88 85/100/85
f 89/189/89 93/173/93 90/184/90
f 90/88/90 91/18/91 89/17/89
f 90/184/90 93/173/93 94/170/94
f 90/171/90 96/186/96 92/172/92
f 91/168/91 93/150/93 89/167/89
f 91/193/91 96/194/96 95/198/95
f 92/90/92 91/18/91 90/88/90
f 92/191/92 96/194/96 91/193/91
f 93/93/93 96/21/96 94/20/94
f 94/185/94 96/186/96 90/171/90
f 95/151/95 93/150/93 91/168/91
f 95/84/95 96/21/96 93/93/93
f 97/171/97 101/152/101 98/163/98
f 98/91/98 99/20/99 97/19/97
f 98/163/98 101/152/101 102/143/102
f 98/148/98 104/166/104 100/149/100
f 99/165/99 101/147/101 97/169/97
f 99/188/99 104/190/104 103/192/103
f 100/94/100 99/20/99 98/91/98
f 100/187/100 104/190/104 99/188/99
f 101/96/101 104/23/104 102/22/102
f 102/164/102 104/166/104 98/148/98
f 103/144/103 101/147/101 99/165/99
f 103/86/103 104/23/104 101/96/101
